{
    "seccion_a": [
        {
            "pregunta1": "Facilmente ANSIOSO, INQUIETO (por ejemplo: preocupación injustificada del provenir, turbado por cosas insignificantes).",
            "valor": 0,
            "total": 0
        },
        {
            "pregunta2": "ACTIVO, TRABAJADOR. De ordinario ocupado en algún trabajo útil,  aún en los tiempos de ocio y de recreo. (No puede quedarse sin hacer nada, desocupado o soñando).",
            "valor": 0,
            "total": 0
        },
        {
            "pregunta3": "ARDOSO para expresar su opinión, defender sus ideas o aluna causa. (Se enardece protamente).",
            "valor": 0,
            "total": 0
        },
        {
            "pregunta4": "EMPEÑADO en la ejecución de las tareas emprendidas, y más bien estimulo que contrariado por las dificultades.",
            "valor": 0,
            "total": 0
        },
        {
            "pregunta5": "SUSCEPTIBLE, IRRITABLE, se impacienta fácilmente (inclinado a sentir fuertemente una contradicción).",
            "valor": 0,
            "total": 0
        },
        {
            "pregunta6": "RESUELTO, DECIDIO. (Toma fácilmente una resolución aún en casos difíciles).",
            "valor": 0,
            "total": 0
        },
        {
            "pregunta7": "INCLINADO A REACCIONAR INTENSAMENTE (interiormente por lo menos) ante un acontencimiento dado; tendencia a responder vivamente, con muchos gestos, con superlativos.",
            "valor": 0,
            "total": 0
        },
        {
            "pregunta8": "REPUESTO PRONTO después de un trabajo agotador. (Recobra pronto sus fuerzas gastadas).",
            "valor": 0,
            "total": 0
        },
        {
            "pregunta9": "MUY AFECTIVO. (Se estremece fácil y hondamente con el relato de un acto heroico, con la lectura de algo emocionante o al ver una película)",
            "valor": 0,
            "total": 0
        },
        {
            "pregunta10": "REALIZA SIN DEMORA lo que ha decidido. (Arreglar un asunto, hacer una visita, escribir una carta, etc.).",
            "valor": 0,
            "total": 0
        }
    ],
    "seccion_b": [
        {
            "pregunta1": "PREVISOR. (Sabe preparar con detalle un programa para el empleo del tiempo, algún plan de fiesta, plan de vida…, y se disgusta ante acontecimeintos imprevistos)",
            "valor": 0,
            "total": 0
        },
        {
            "pregunta2": "FLEXIBLE. Es fácil adaptación a nuevas condiciones de existencia.",
            "valor": 0,
            "total": 0
        },
        {
            "pregunta3": "METODICO en sus asustos; siente la necesidad de ordenarlos, de poner cada cosa en su sitio.",
            "valor": 0,
            "total": 0
        },
        {
            "pregunta4": "Atraído por lo que es FLUIDO, MATIZADO. (Evita las fórmulas tajantes, muy categóricas).",
            "valor": 0,
            "total": 0
        },
        {
            "pregunta5": "Propenso a haver REVIVIR los acontecimientos pasados (piensa larga y frecuentemente en las misma ideas),",
            "valor": 0,
            "total": 0
        },
        {
            "pregunta6": "AMPLITUD DE OPINIONES y jucios; considera los diversos aspectos de un hecho, de un asusto.",
            "valor": 0,
            "total": 0
        },
        {
            "pregunta7": "CONSERVADOR. (Prefiere guardar las normas existentes, la tradición, o tiene la manía de conservar objetos usados, como vestidos, muebles viejeos, cartas antiguas u objetos inúteles).",
            "valor": 0,
            "total": 0
        },
        {
            "pregunta8": "Habitualmente ACOGEDOR. Tiene tendencia a trabajar espontáneamente buenas relaciones con su interlocutor (actitud de franca simpatía).",
            "valor": 0,
            "total": 0
        },
        {
            "pregunta9": "Ordinariamente RECATADO, RESERVADO. No le gusta dar a conocer sus amistades, sus simpatia, sus gustos).",
            "valor": 0,
            "total": 0
        },
        {
            "pregunta10": "Suele PLEGARSE a los acontecimientos, a las circunstancias, a las personas; sabe esperar y encontrar el momento favorable; no fuerza ni precipita.",
            "valor": 0,
            "total": 0
        }
    ],
    "seccion_c": [
        {
            "pregunta1": "AMBICIOSO: Inclinado a buscar exageradamente y para sí, riqueza, éxito, gloria.",
            "valor": 0,
            "total": 0
        },
        {
            "pregunta2": "COMPASIVO Y CARITATIVO (se compadece fácilmente de la desgracia ajena).",
            "valor": 0,
            "total": 0
        },
        {
            "pregunta3": "AVIDO (aspira ardientemente a acrecentar su saber, sus riquezas, su gloria, para poseerlos y gozar de ellos).",
            "valor": 0,
            "total": 0
        },
        {
            "pregunta4": "Espontáneamente ABNEGADO (pone su alegría en servir a los demás; por ejemplo, en vista a los pobres, o en obras de beneficencia).",
            "valor": 0,
            "total": 0
        },
        {
            "pregunta5": "RECELOSO (temor de que se prefiera a otro a él, miedo de ser engañado).",
            "valor": 0,
            "total": 0
        },
        {
            "pregunta6": "BENEVOLO con los inferiores, los empleados. (Se interesa por sus problemas; sabe conquistar su cariño).",
            "valor": 0,
            "total": 0
        },
        {
            "pregunta7": "CELOSO (manifiesta un vivo apego hacia sus amistades y sus obras).",
            "valor": 0,
            "total": 0
        },
        {
            "pregunta8": "AFECTUOSO para con los demñas (por ejemplo, le gusta emplear palabras cariñosas; concede mucha importancia a los menores gestos que expresan amistad o amor).",
            "valor": 0,
            "total": 0
        },
        {
            "pregunta9": "Propenso a APEGARSE exageradamente a sus objetos personales ( experimenta espontáneamente retraimiento y disgusto en prestalos, aunque sea por poco tiempo).",
            "valor": 0,
            "total": 0
        },
        {
            "pregunta10": "ATENTO (prevee los deseos de los otros).",
            "valor": 0,
            "total": 0
        }
    ],
    "seccion_d": [
        {
            "pregunta1": "AGRESIVO (le gusta y busca la polémica, la discusión, la competencia).",
            "valor": 0,
            "total": 0
        },
        {
            "pregunta2": "SOCIABLE (busca la compañía de otros que pertenezcan a su grupo social); toma parte con gusto en reuniones, asambleas.",
            "valor": 0,
            "total": 0
        },
        {
            "pregunta3": "Aficionado a TOMAR EL MANDO (la dirección de un grupo, de una reunión, de una empresa=.",
            "valor": 0,
            "total": 0
        },
        {
            "pregunta4": "Interesado por el BIEN COMUN; propenso espontáneamente a colaborar en el écito de una empresa colectiva.",
            "valor": 0,
            "total": 0
        },
        {
            "pregunta5": "INDEPENDIENTE. Quiere actuar sin consejo, siguiendo su propio criterio.",
            "valor": 0,
            "total": 0
        },
        {
            "pregunta6": "Atraído por las REUNIONES COLECTIVAS (le gusta las salidas en grupo, las comidas en coún).",
            "valor": 0,
            "total": 0
        },
        {
            "pregunta7": "ATRAIDO POR EL PELIGRO (inclinación a lo desconocido, con todo los riesdos que supone, complaciendose en ello).",
            "valor": 0,
            "total": 0
        },
        {
            "pregunta8": "Llevando a COMUNICAR FACILMENTE con los recién llegado (por ejemplo, en una reunión se familiariza rápidamente con los forasteros, le gusta su compañía).",
            "valor": 0,
            "total": 0
        },
        {
            "pregunta9": "AUTORITATIO. Se impone naturalmente a otro, a un grupo; se hace escuchar, respetar.",
            "valor": 0,
            "total": 0
        },
        {
            "pregunta10": "SOLIDARIO con su grupo; experimenta respecto de él sentimiento de dependencia, de ayuda mutua.",
            "valor": 0,
            "total": 0
        }
    ],
    "seccion_e": [
        {
            "pregunta1": "Prefiere las CIENCIAS ABSTRACTAS (Matemáticas, Geometría, Lógica).",
            "valor": 0,
            "total": 0
        },
        {
            "pregunta2": "Interesado por los PROBLEMAS NUEVOS, originales, que proporcionan a la inteligencia ocasión de ejercitarse, de INQUIRIR O BUSCAR personalmente.",
            "valor": 0,
            "total": 0
        },
        {
            "pregunta3": "Aficionado a JUEGOS INTELECTUALES (juegos de reflexión, discusion de ideas).",
            "valor": 0,
            "total": 0
        },
        {
            "pregunta4": "Atraído por todo lo que puede INSTRUIR, extender los conocimientos intelectuales (lecturas, conferencias, documentales).",
            "valor": 0,
            "total": 0
        },
        {
            "pregunta5": "Da mucha importancia al ASPECTO TEORICO de los problemas (por ejemplo, se interesa más por el principio del funcionamiento de una máquina que por su uso).",
            "valor": 0,
            "total": 0
        },
        {
            "pregunta6": "Inclinado por naturaleza hacia las COSAS DEL ESPIRITU (frecuenta de buena gana los cículos de estudio, las bibliotecas).",
            "valor": 0,
            "total": 0
        },
        {
            "pregunta7": "ABUNDANDTE EN IDEAS: las tiene numerosas y variadas sobre temas diferentes.",
            "valor": 0,
            "total": 0
        },
        {
            "pregunta8": "Capaz de realizar un ESFUERZO PERSONAL y de prolongar para ampliar su cultura. (Se apasiona por los estudios).",
            "valor": 0,
            "total": 0
        },
        {
            "pregunta9": "En la expresión del pensamiento (redaccion de un trabajo, de una crta, de un informe) se preocupa más por el ORDEN LOGICO de las ideas que por la variedad de las imágenes.",
            "valor": 0,
            "total": 0
        },
        {
            "pregunta10": "Interesado por la INVESTIGACION de pruebas objetivas (quiere conocer las cosas como son).",
            "valor": 0,
            "total": 0
        }
    ]
}